[
    {
    "itemName"  : "file2-01",
    "instr"     : "a1",
    "dur"       : 10,
    "freq"      : 20,
    "ampFirst"  : 0.3,
    "ampSecond" : 0.2,
    "ampThird"  : 0.8,
    "ifnFirst"  : 100,
    "ifnSecond" : 105,
    "ifnThird"  : 106,
    "freqDeviation2" : 0.9,
    "freqDeviation3" : 2,
    "ifnFreq"  : 2,
    "ifnAmpFirst"  : 3,
    "ifnAmpSecond" : 3,
    "ifnAmpThird"  : 3,
    "ifnDevF2"  : 5,
    "ifnDevF3"  : 5,

    "ifnParts1" : 107,
    "ifnParts2" : 102,
    "ifnParts3" : 104,
    "ifnAmp1" : 2,
    "ifnAmp2"  : 2,
    "ifnAmp3" : 2,
    "Amp1" : 0.1,
    "Amp2"  : 0.1,
    "Amp3" : 0.1,

    "partials"       : 1,
    "theta"     : 33,
    "width"     : 77,
    "polarpattern" : 0.7,
    "ifntheta" : 7,
    "ifnwidth" : 2,
    "ifnpartials" : 3,
    "ifnpolarpattern" : 2

},
{
    "itemName"  : "file2-02",
    "instr"     : "a1",
    "dur"       : 10,
    "freq"      : 20,
    "ampFirst"  : 0.8,
    "ampSecond" : 0.2,
    "ampThird"  : 0.8,
    "ifnFirst"  : 102,
    "ifnSecond" : 103,
    "ifnThird"  : 104,
    "freqDeviation2" : 0.9,
    "freqDeviation3" : 2,
    "ifnFreq"  : 2,
    "ifnAmpFirst"  : 4,
    "ifnAmpSecond" : 4,
    "ifnAmpThird"  : 4,
    "ifnDevF2"  : 5,
    "ifnDevF3"  : 5,

    "ifnParts1" : 105,
    "ifnParts2" : 106,
    "ifnParts3" : 107,
    "ifnAmp1" : 4,
    "ifnAmp2"  : 4,
    "ifnAmp3" : 4,
    "Amp1" : 0.2,
    "Amp2"  : 0.2,
    "Amp3" : 0.2,

    "partials"       : 1,
    "theta"     : 33,
    "width"     : 77,
    "polarpattern" : 0.5,
    "ifntheta" : 7,
    "ifnwidth" : 2,
    "ifnpartials" : 3,
    "ifnpolarpattern" : 3

}
]